%YAML 1.1
%TAG !u! tag:unity3d.com,2011:
--- !u!74 &7400000
AnimationClip:
  m_ObjectHideFlags: 0
  m_PrefabParentObject: {fileID: 0}
  m_PrefabInternal: {fileID: 0}
  m_Name: EnemyDamage
  serializedVersion: 6
  m_Legacy: 0
  m_Compressed: 0
  m_UseHighQualityCurve: 1
  m_RotationCurves: []
  m_CompressedRotationCurves: []
  m_EulerCurves: []
  m_PositionCurves: []
  m_ScaleCurves: []
  m_FloatCurves: []
  m_PPtrCurves:
  - curve:
    - time: 0
      value: {fileID: 21300000, guid: 36557b8c9d3078149870fafd6cb260a5, type: 3}
    - time: 0.125
      value: {fileID: 21300000, guid: e1886727a342bcc4aae60f8d65c551db, type: 3}
    - time: 0.25
      value: {fileID: 21300000, guid: 56cb43a84256058469f043e862537ed4, type: 3}
    - time: 0.375
      value: {fileID: 21300000, guid: e1886727a342bcc4aae60f8d65c551db, type: 3}
    - time: 0.5
      value: {fileID: 21300000, guid: 36557b8c9d3078149870fafd6cb260a5, type: 3}
    - time: 0.625
      value: {fileID: 21300000, guid: b4a56bce9ac6bb142aafb640ff693089, type: 3}
    - time: 0.75
      value: {fileID: 21300000, guid: 0e4095b8a18c77e4b864cde2522ff67f, type: 3}
    attribute: m_Sprite
    path: 
    classID: 212
    script: {fileID: 0}
  m_SampleRate: 8
  m_WrapMode: 0
  m_Bounds:
    m_Center: {x: 0, y: 0, z: 0}
    m_Extent: {x: 0, y: 0, z: 0}
  m_ClipBindingConstant:
    genericBindings:
    - serializedVersion: 2
      path: 0
      attribute: 0
      script: {fileID: 0}
      typeID: 212
      customType: 23
      isPPtrCurve: 1
    pptrCurveMapping:
    - {fileID: 21300000, guid: 36557b8c9d3078149870fafd6cb260a5, type: 3}
    - {fileID: 21300000, guid: e1886727a342bcc4aae60f8d65c551db, type: 3}
    - {fileID: 21300000, guid: 56cb43a84256058469f043e862537ed4, type: 3}
    - {fileID: 21300000, guid: e1886727a342bcc4aae60f8d65c551db, type: 3}
    - {fileID: 21300000, guid: 36557b8c9d3078149870fafd6cb260a5, type: 3}
    - {fileID: 21300000, guid: b4a56bce9ac6bb142aafb640ff693089, type: 3}
    - {fileID: 21300000, guid: 0e4095b8a18c77e4b864cde2522ff67f, type: 3}
  m_AnimationClipSettings:
    serializedVersion: 2
    m_AdditiveReferencePoseClip: {fileID: 0}
    m_AdditiveReferencePoseTime: 0
    m_StartTime: 0
    m_StopTime: 0.875
    m_OrientationOffsetY: 0
    m_Level: 0
    m_CycleOffset: 0
    m_HasAdditiveReferencePose: 0
    m_LoopTime: 1
    m_LoopBlend: 0
    m_LoopBlendOrientation: 0
    m_LoopBlendPositionY: 0
    m_LoopBlendPositionXZ: 0
    m_KeepOriginalOrientation: 0
    m_KeepOriginalPositionY: 1
    m_KeepOriginalPositionXZ: 0
    m_HeightFromFeet: 0
    m_Mirror: 0
  m_EditorCurves: []
  m_EulerEditorCurves: []
  m_HasGenericRootTransform: 0
  m_HasMotionFloatCurves: 0
  m_GenerateMotionCurves: 0
  m_Events:
  - time: 0.75
    functionName: StopDamage
    data: 
    objectReferenceParameter: {fileID: 0}
    floatParameter: 0
    intParameter: 0
    messageOptions: 0
